#include "$(ENGLISHDIR)/partners/partners.def"

<partnertable>

# <typeofpartner <partnerofthemonth>>

# <div>
# <partnerlogo "Oregon State University Open Source Lab" osuosl.png "http://osuosl.org/">
# # last update: 2017/06/23 (new logo)
# # partner of the month 20170812 - 
# <partnerdesc>
# <osuosl1>
# <osuosl2>
# </partnerdesc>
# </div>
#
# <hr>
 
 <typeofpartner <alphabeticallist>>

 <div id="1und1">
 <partnerlogo "1und1" 1und1.png "http://www.1und1.info/">
 <partnerdesc>
 <oneandone1>
 <oneandone2>
 </partnerdesc>
 </div>
 
 <hr>

 <div id="Bytemark">
 <partnerlogo "Bytemark" bytemark_logo.png "http://www.bytemark.co.uk/r/deb-partners/">
 # last update: 2017/06/13 (new logo, update description)
 <partnerdesc>
 <bytemark1>
 <bytemark2>
 </partnerdesc>
 </div>

 <hr>
 
 <div id="conova">
 <partnerlogo "conova" conova.png "https://www.conova.com">
 # date added: 2017/05/02
 # last update: 2017/05/02
 <partnerdesc>
 <conova1>
 <conova2>
 </partnerdesc>
 </div>

 <hr>

 <div id="credativ">
 <partnerlogo "credativ GmbH" credativ.png "http://www.credativ.com/">
 <partnerdesc>
 <credativ1>
 <credativ2>
 </partnerdesc>
 </div>

 <hr>
 
 <div id="DG-i">
 <partnerlogo "DG-i" dgi_logo.png "http://www.dg-i.net/">
 <partnerdesc>
 <dg-i1>
 <dg-i2>
 </partnerdesc>
 </div>

 <hr>
 
 <div id="Eaton">
 <partnerlogo "Eaton" logo_eaton.png "http://www.eaton.com/">
 <partnerdesc>
 <eaton1>
 <eaton2>
 </partnerdesc>
 </div>

 <hr>
 
 <div id="Fastly">
 <partnerlogo "Fastly" fastly.png "https://www.fastly.com">
 # last update: 2017/11/25 (New addition)
 <partnerdesc>
 <fastly1>
 <fastly2>
 </partnerdesc>
 </div>
 
 <hr>
 
 <div id="Genesi">
 <partnerlogo "Genesi" genesi-logo.png "http://www.genesi-usa.com/">
 # last update: 2017/06/23 (Genesi confirmed everything is up-to-date)
 <partnerdesc>
 <genesi1>
 <genesi2>
 </partnerdesc>
 </div>
 
 <hr>

 <div id="HPE">
 <partnerlogo "HPE" hpe.png "http://www.hpe.com/engage/opensource">
 # last update: 2017/03/25 (new logo, update description)
 <partnerdesc>
 <hpe1>
 <hpe2>
 </partnerdesc>
 </div>

 <hr>
  
 <div id="LeaseWeb">
 <partnerlogo "LeaseWeb" logo_leaseweb.png "https://www.leaseweb.com/">
  # date added: 2017/05/20
  # last update: 2017/05/20
 <partnerdesc>
 <leaseweb1>
 <leaseweb2>
 </partnerdesc>
 </div>

 <hr>

 <div id="Loongson">
 <partnerlogo "Loongson" loongson.png "http://www.loongson.cn">
 <partnerdesc>
 <loongson1>
 <loongson2>
 </partnerdesc>
 </div>

 <hr>
   
 <div id="man-da">
 <partnerlogo "Metropolitan Area Network Darmstadt" manda_logo.png "http://www.man-da.de/">
 <partnerdesc>
 <man-da1>
 <man-da2>
 </partnerdesc>
 </div>

 <hr>
  
 <div id="osuosl">
 <partnerlogo "Oregon State University Open Source Lab" osuosl.png "http://osuosl.org/">
 # last update: 2017/06/23 (new logo)
 # partner of the month 20170812 - November 2017
 <partnerdesc>
 <osuosl1>
 <osuosl2>
 </partnerdesc>
 </div>

 <hr>
 
 <div id="Skolelinux">
 <partnerlogo "Skolelinux" skolelinux.png "http://www.skolelinux.org/">
 <partnerdesc>
 <skolelinux1>
 <skolelinux2>
 </partnerdesc>
 </div>

 <hr>
 
 <div id="Telegraaf">
 <partnerlogo "Telegraaf Media ICT BV" tmi_logo.png "http://www.telegraaf.nl/">
 <partnerdesc>
 <telegraaf1>
 <telegraaf2>
 <telegraaf3>
 </partnerdesc>
 </div>

 <hr>
 
 <div id="Thomas-Krenn">
 <partnerlogo "Thomas-Krenn.AG" thomas-krenn.png "http://www.thomas-krenn.com/">
 <partnerdesc>
 <thomaskrenn1>
 <thomaskrenn2>
 </partnerdesc>
 </div>

 <hr>

 <div id="trustsec"> 
 <partnerlogo "trustsec IT solutions GmbH" trustsec.png "http://www.trustsec.de/">
 <partnerdesc>
 <trustsec1>
 <trustsec2>
 </partnerdesc>
 </div>
 
  <hr>
 
 <div id="wellcome"> 
 <partnerlogo "Wellcome Sanger Institute" wellcome_sanger.png "https://www.sanger.ac.uk/">
 <partnerdesc>
 <wellcome1>
 <wellcome2>
 </partnerdesc>
 </div>


</partnertable>
