<define-tag pagetitle>DLA-2090-1 qemu</define-tag>
<define-tag report_date>2020-02-05</define-tag>
<define-tag secrefs>CVE-2020-7039 Bug#949085</define-tag>
<define-tag packages>qemu</define-tag>
<define-tag isvulnerable>yes</define-tag>
<define-tag fixed>yes</define-tag>
<define-tag fixed-section>no</define-tag>

#use wml::debian::security

