<define-tag pagetitle>DLA-2137-1 sleuthkit</define-tag>
<define-tag report_date>2020-03-11</define-tag>
<define-tag secrefs>CVE-2020-10232</define-tag>
<define-tag packages>sleuthkit</define-tag>
<define-tag isvulnerable>yes</define-tag>
<define-tag fixed>yes</define-tag>
<define-tag fixed-section>no</define-tag>

#use wml::debian::security

