<define-tag pagetitle>DLA-2113-1 cloud-init</define-tag>
<define-tag report_date>2020-02-21</define-tag>
<define-tag secrefs>CVE-2020-8631 CVE-2020-8632 Bug#951362 Bug#951363</define-tag>
<define-tag packages>cloud-init</define-tag>
<define-tag isvulnerable>yes</define-tag>
<define-tag fixed>yes</define-tag>
<define-tag fixed-section>no</define-tag>

#use wml::debian::security

