<define-tag pagetitle>DLA-1228-1 poppler</define-tag>
<define-tag report_date>2018-1-3</define-tag>
<define-tag secrefs>CVE-2017-1000456</define-tag>
<define-tag packages>poppler</define-tag>
<define-tag isvulnerable>yes</define-tag>
<define-tag fixed>yes</define-tag>
<define-tag fixed-section>no</define-tag>

#use wml::debian::security

