<define-tag pagetitle>DSA-4581-1 git</define-tag>
<define-tag report_date>2019-12-10</define-tag>
<define-tag secrefs>CVE-2019-1348 CVE-2019-1349 CVE-2019-1352 CVE-2019-1353 CVE-2019-1387 CVE-2019-19604</define-tag>
<define-tag packages>git</define-tag>
<define-tag isvulnerable>yes</define-tag>
<define-tag fixed>yes</define-tag>
<define-tag fixed-section>no</define-tag>

#use wml::debian::security



</dl>
