<define-tag pagetitle>DLA-1993-1 mesa</define-tag>
<define-tag report_date>2019-11-15</define-tag>
<define-tag secrefs>CVE-2019-5068 Bug#944298</define-tag>
<define-tag packages>mesa</define-tag>
<define-tag isvulnerable>yes</define-tag>
<define-tag fixed>yes</define-tag>
<define-tag fixed-section>no</define-tag>

#use wml::debian::security

